%YAML 1.1
%TAG !u! tag:unity3d.com,2011:
--- !u!1 &6767781393906459270
GameObject:
  m_ObjectHideFlags: 0
  m_CorrespondingSourceObject: {fileID: 0}
  m_PrefabInstance: {fileID: 0}
  m_PrefabAsset: {fileID: 0}
  serializedVersion: 6
  m_Component:
  - component: {fileID: 5138826419620676679}
  - component: {fileID: 7341276981094638700}
  - component: {fileID: 6216704670620528702}
  - component: {fileID: 5444345088295127535}
  m_Layer: 0
  m_Name: PartColor (1)
  m_TagString: Untagged
  m_Icon: {fileID: 0}
  m_NavMeshLayer: 0
  m_StaticEditorFlags: 0
  m_IsActive: 1
--- !u!4 &5138826419620676679
Transform:
  m_ObjectHideFlags: 0
  m_CorrespondingSourceObject: {fileID: 0}
  m_PrefabInstance: {fileID: 0}
  m_PrefabAsset: {fileID: 0}
  m_GameObject: {fileID: 6767781393906459270}
  m_LocalRotation: {x: 0, y: 0, z: 0.7071068, w: 0.7071068}
  m_LocalPosition: {x: 0.99084073, y: 3.0043037, z: -0.97660226}
  m_LocalScale: {x: 1, y: 1, z: 1}
  m_Children: []
  m_Father: {fileID: 0}
  m_RootOrder: 0
  m_LocalEulerAnglesHint: {x: 0, y: 0, z: 90}
--- !u!212 &7341276981094638700
SpriteRenderer:
  m_ObjectHideFlags: 0
  m_CorrespondingSourceObject: {fileID: 0}
  m_PrefabInstance: {fileID: 0}
  m_PrefabAsset: {fileID: 0}
  m_GameObject: {fileID: 6767781393906459270}
  m_Enabled: 1
  m_CastShadows: 0
  m_ReceiveShadows: 0
  m_DynamicOccludee: 1
  m_MotionVectors: 1
  m_LightProbeUsage: 1
  m_ReflectionProbeUsage: 1
  m_RenderingLayerMask: 1
  m_RendererPriority: 0
  m_Materials:
  - {fileID: 10754, guid: 0000000000000000f000000000000000, type: 0}
  m_StaticBatchInfo:
    firstSubMesh: 0
    subMeshCount: 0
  m_StaticBatchRoot: {fileID: 0}
  m_ProbeAnchor: {fileID: 0}
  m_LightProbeVolumeOverride: {fileID: 0}
  m_ScaleInLightmap: 1
  m_PreserveUVs: 0
  m_IgnoreNormalsForChartDetection: 0
  m_ImportantGI: 0
  m_StitchLightmapSeams: 0
  m_SelectedEditorRenderState: 0
  m_MinimumChartSize: 4
  m_AutoUVMaxDistance: 0.5
  m_AutoUVMaxAngle: 89
  m_LightmapParameters: {fileID: 0}
  m_SortingLayerID: 0
  m_SortingLayer: 0
  m_SortingOrder: 0
  m_Sprite: {fileID: 21300000, guid: 505256db17e225149a4fa62dad5622d8, type: 3}
  m_Color: {r: 1, g: 1, b: 1, a: 1}
  m_FlipX: 0
  m_FlipY: 0
  m_DrawMode: 0
  m_Size: {x: 2.5, y: 2.5}
  m_AdaptiveModeThreshold: 0.5
  m_SpriteTileMode: 0
  m_WasSpriteAssigned: 1
  m_MaskInteraction: 0
  m_SpriteSortPoint: 0
--- !u!60 &6216704670620528702
PolygonCollider2D:
  m_ObjectHideFlags: 0
  m_CorrespondingSourceObject: {fileID: 0}
  m_PrefabInstance: {fileID: 0}
  m_PrefabAsset: {fileID: 0}
  m_GameObject: {fileID: 6767781393906459270}
  m_Enabled: 1
  m_Density: 1
  m_Material: {fileID: 0}
  m_IsTrigger: 0
  m_UsedByEffector: 0
  m_UsedByComposite: 0
  m_Offset: {x: 0, y: 0}
  m_SpriteTilingProperty:
    border: {x: 0, y: 0, z: 0, w: 0}
    pivot: {x: 1, y: 1}
    oldSize: {x: 2.5, y: 2.5}
    newSize: {x: 2.5, y: 2.5}
    adaptiveTilingThreshold: 0.5
    drawMode: 0
    adaptiveTiling: 0
  m_AutoTiling: 0
  m_Points:
    m_Paths:
    - - {x: -0.45999998, y: -1.9699999}
      - {x: -0.77, y: -1.87}
      - {x: -1.02, y: -1.74}
      - {x: -1.17, y: -1.65}
      - {x: -1.38, y: -1.48}
      - {x: -1.48, y: -1.38}
      - {x: -1.5999999, y: -1.24}
      - {x: -1.74, y: -1.02}
      - {x: -1.8199999, y: -0.88}
      - {x: -1.9399999, y: -0.57}
      - {x: -1.99, y: -0.29}
      - {x: -2.01, y: -0.08}
      - {x: -2.03, y: 0}
      - {x: -2.5, y: 0}
      - {x: -2.5, y: -0.34}
      - {x: -2.46, y: -0.56}
      - {x: -2.4299998, y: -0.71999997}
      - {x: -2.36, y: -0.89}
      - {x: -2.32, y: -0.98999995}
      - {x: -2.19, y: -1.26}
      - {x: -2.09, y: -1.42}
      - {x: -2.04, y: -1.49}
      - {x: -1.92, y: -1.63}
      - {x: -1.8399999, y: -1.7199999}
      - {x: -1.7199999, y: -1.8399999}
      - {x: -1.53, y: -2.01}
      - {x: -1.42, y: -2.09}
      - {x: -1.26, y: -2.19}
      - {x: -1.1, y: -2.27}
      - {x: -0.98999995, y: -2.32}
      - {x: -0.85999995, y: -2.37}
      - {x: -0.71, y: -2.4199998}
      - {x: -0.45999998, y: -2.48}
      - {x: -0.35, y: -2.5}
      - {x: 0, y: -2.5}
      - {x: 0, y: -2.03}
      - {x: -0.08, y: -2.02}
--- !u!114 &5444345088295127535
MonoBehaviour:
  m_ObjectHideFlags: 0
  m_CorrespondingSourceObject: {fileID: 0}
  m_PrefabInstance: {fileID: 0}
  m_PrefabAsset: {fileID: 0}
  m_GameObject: {fileID: 6767781393906459270}
  m_Enabled: 1
  m_EditorHideFlags: 0
  m_Script: {fileID: 11500000, guid: ffe13820af5a6174380b63347a663bf0, type: 3}
  m_Name: 
  m_EditorClassIdentifier: 
